C:\Users\nplekhanov\exp\lua-5.3.4_Win32_bin\lua53.exe seacombat.lua
generating field...
   | A | B | C | D | E | F | G | H | I | J |
1
2  |   |   |   |   |   |   |   |   |   |   |
3
4  |   |   |   |   |   |   |   |   |   |   |
5
6  |   |   |   |   |   |   |   |   |   |   |
7
8  |   |   |   |   |   |   |   |   |   |   |
9
10 |   |   |   |   |   |   |   |   |   |   |
(0) Choose target: c5

Miss...
   | A | B | C | D | E | F | G | H | I | J |
1
2  |   |   |   |   |   |   |   |   |   |   |
3
4  |   |   |   |   |   |   |   |   |   |   |
5            .
6  |   |   |   |   |   |   |   |   |   |   |
7
8  |   |   |   |   |   |   |   |   |   |   |
9
10 |   |   |   |   |   |   |   |   |   |   |
(1) Choose target: e5

Miss...
   | A | B | C | D | E | F | G | H | I | J |
1
2  |   |   |   |   |   |   |   |   |   |   |
3
4  |   |   |   |   |   |   |   |   |   |   |
5            .       .
6  |   |   |   |   |   |   |   |   |   |   |
7
8  |   |   |   |   |   |   |   |   |   |   |
9
10 |   |   |   |   |   |   |   |   |   |   |
(2) Choose target: g5

Miss...
   | A | B | C | D | E | F | G | H | I | J |
1
2  |   |   |   |   |   |   |   |   |   |   |
3
4  |   |   |   |   |   |   |   |   |   |   |
5            .       .       .
6  |   |   |   |   |   |   |   |   |   |   |
7
8  |   |   |   |   |   |   |   |   |   |   |
9
10 |   |   |   |   |   |   |   |   |   |   |
(3) Choose target: i5

Miss...
   | A | B | C | D | E | F | G | H | I | J |
1
2  |   |   |   |   |   |   |   |   |   |   |
3
4  |   |   |   |   |   |   |   |   |   |   |
5            .       .       .       .
6  |   |   |   |   |   |   |   |   |   |   |
7
8  |   |   |   |   |   |   |   |   |   |   |
9
10 |   |   |   |   |   |   |   |   |   |   |
(4) Choose target: 57

Miss...
   | A | B | C | D | E | F | G | H | I | J |
1
2  |   |   |   |   |   |   |   |   |   |   |
3
4  |   |   |   |   |   |   |   |   |   |   |
5            .       .       .       .
6  |   |   |   |   |   |   |   |   |   |   |
7
8  |   |   |   |   |   |   |   |   |   |   |
9
10 |   |   |   |   |   |   |   |   |   |   |
(5) Choose target: f7

Miss...
   | A | B | C | D | E | F | G | H | I | J |
1
2  |   |   |   |   |   |   |   |   |   |   |
3
4  |   |   |   |   |   |   |   |   |   |   |
5            .       .       .       .
6  |   |   |   |   |   |   |   |   |   |   |
7                        .
8  |   |   |   |   |   |   |   |   |   |   |
9
10 |   |   |   |   |   |   |   |   |   |   |
(6) Choose target: d7

Miss...
   | A | B | C | D | E | F | G | H | I | J |
1
2  |   |   |   |   |   |   |   |   |   |   |
3
4  |   |   |   |   |   |   |   |   |   |   |
5            .       .       .       .
6  |   |   |   |   |   |   |   |   |   |   |
7                .       .
8  |   |   |   |   |   |   |   |   |   |   |
9
10 |   |   |   |   |   |   |   |   |   |   |
(7) Choose target: c7

Miss...
   | A | B | C | D | E | F | G | H | I | J |
1
2  |   |   |   |   |   |   |   |   |   |   |
3
4  |   |   |   |   |   |   |   |   |   |   |
5            .       .       .       .
6  |   |   |   |   |   |   |   |   |   |   |
7            .   .       .
8  |   |   |   |   |   |   |   |   |   |   |
9
10 |   |   |   |   |   |   |   |   |   |   |
(8) Choose target: d3

Hit!
   | A | B | C | D | E | F | G | H | I | J |
1
2  |   |   |   |   |   |   |   |   |   |   |
3                x
4  |   |   |   |   |   |   |   |   |   |   |
5            .       .       .       .
6  |   |   |   |   |   |   |   |   |   |   |
7            .   .       .
8  |   |   |   |   |   |   |   |   |   |   |
9
10 |   |   |   |   |   |   |   |   |   |   |
(9) Choose target: e3

Hit!
   | A | B | C | D | E | F | G | H | I | J |
1
2  |   |   |   |   |   |   |   |   |   |   |
3                x   x
4  |   |   |   |   |   |   |   |   |   |   |
5            .       .       .       .
6  |   |   |   |   |   |   |   |   |   |   |
7            .   .       .
8  |   |   |   |   |   |   |   |   |   |   |
9
10 |   |   |   |   |   |   |   |   |   |   |
(10) Choose target: f3

Hit!
   | A | B | C | D | E | F | G | H | I | J |
1
2  |   |   |   |   |   |   |   |   |   |   |
3                x   x   x
4  |   |   |   |   |   |   |   |   |   |   |
5            .       .       .       .
6  |   |   |   |   |   |   |   |   |   |   |
7            .   .       .
8  |   |   |   |   |   |   |   |   |   |   |
9
10 |   |   |   |   |   |   |   |   |   |   |
(11) Choose target: g3

Miss...
   | A | B | C | D | E | F | G | H | I | J |
1
2  |   |   |   |   |   |   |   |   |   |   |
3                x   x   x   .
4  |   |   |   |   |   |   |   |   |   |   |
5            .       .       .       .
6  |   |   |   |   |   |   |   |   |   |   |
7            .   .       .
8  |   |   |   |   |   |   |   |   |   |   |
9
10 |   |   |   |   |   |   |   |   |   |   |
(12) Choose target: c3

Hit and killed!
   | A | B | C | D | E | F | G | H | I | J |
1
2  |   |   |   |   |   |   |   |   |   |   |
3            x   x   x   x   .
4  |   |   |   |   |   |   |   |   |   |   |
5            .       .       .       .
6  |   |   |   |   |   |   |   |   |   |   |
7            .   .       .
8  |   |   |   |   |   |   |   |   |   |   |
9
10 |   |   |   |   |   |   |   |   |   |   |
(13) Choose target: a3

Miss...
   | A | B | C | D | E | F | G | H | I | J |
1
2  |   |   |   |   |   |   |   |   |   |   |
3    .       x   x   x   x   .
4  |   |   |   |   |   |   |   |   |   |   |
5            .       .       .       .
6  |   |   |   |   |   |   |   |   |   |   |
7            .   .       .
8  |   |   |   |   |   |   |   |   |   |   |
9
10 |   |   |   |   |   |   |   |   |   |   |
(14) Choose target: h4

Hit!
   | A | B | C | D | E | F | G | H | I | J |
1
2  |   |   |   |   |   |   |   |   |   |   |
3    .       x   x   x   x   .
4  |   |   |   |   |   |   |   | x |   |   |
5            .       .       .       .
6  |   |   |   |   |   |   |   |   |   |   |
7            .   .       .
8  |   |   |   |   |   |   |   |   |   |   |
9
10 |   |   |   |   |   |   |   |   |   |   |
(15) Choose target: h3

Hit and killed!
   | A | B | C | D | E | F | G | H | I | J |
1
2  |   |   |   |   |   |   |   |   |   |   |
3    .       x   x   x   x   .   x
4  |   |   |   |   |   |   |   | x |   |   |
5            .       .       .       .
6  |   |   |   |   |   |   |   |   |   |   |
7            .   .       .
8  |   |   |   |   |   |   |   |   |   |   |
9
10 |   |   |   |   |   |   |   |   |   |   |
(16) Choose target: h2

Miss...
   | A | B | C | D | E | F | G | H | I | J |
1
2  |   |   |   |   |   |   |   | . |   |   |
3    .       x   x   x   x   .   x
4  |   |   |   |   |   |   |   | x |   |   |
5            .       .       .       .
6  |   |   |   |   |   |   |   |   |   |   |
7            .   .       .
8  |   |   |   |   |   |   |   |   |   |   |
9
10 |   |   |   |   |   |   |   |   |   |   |
(17) Choose target: h6

Hit!
   | A | B | C | D | E | F | G | H | I | J |
1
2  |   |   |   |   |   |   |   | . |   |   |
3    .       x   x   x   x   .   x
4  |   |   |   |   |   |   |   | x |   |   |
5            .       .       .       .
6  |   |   |   |   |   |   |   | x |   |   |
7            .   .       .
8  |   |   |   |   |   |   |   |   |   |   |
9
10 |   |   |   |   |   |   |   |   |   |   |
(18) Choose target: h7

Miss...
   | A | B | C | D | E | F | G | H | I | J |
1
2  |   |   |   |   |   |   |   | . |   |   |
3    .       x   x   x   x   .   x
4  |   |   |   |   |   |   |   | x |   |   |
5            .       .       .       .
6  |   |   |   |   |   |   |   | x |   |   |
7            .   .       .       .
8  |   |   |   |   |   |   |   |   |   |   |
9
10 |   |   |   |   |   |   |   |   |   |   |
(19) Choose target: i6

Hit!
   | A | B | C | D | E | F | G | H | I | J |
1
2  |   |   |   |   |   |   |   | . |   |   |
3    .       x   x   x   x   .   x
4  |   |   |   |   |   |   |   | x |   |   |
5            .       .       .       .
6  |   |   |   |   |   |   |   | x | x |   |
7            .   .       .       .
8  |   |   |   |   |   |   |   |   |   |   |
9
10 |   |   |   |   |   |   |   |   |   |   |
(20) Choose target: j6

Miss...
   | A | B | C | D | E | F | G | H | I | J |
1
2  |   |   |   |   |   |   |   | . |   |   |
3    .       x   x   x   x   .   x
4  |   |   |   |   |   |   |   | x |   |   |
5            .       .       .       .
6  |   |   |   |   |   |   |   | x | x | . |
7            .   .       .       .
8  |   |   |   |   |   |   |   |   |   |   |
9
10 |   |   |   |   |   |   |   |   |   |   |
(21) Choose target: g6

Hit and killed!
   | A | B | C | D | E | F | G | H | I | J |
1
2  |   |   |   |   |   |   |   | . |   |   |
3    .       x   x   x   x   .   x
4  |   |   |   |   |   |   |   | x |   |   |
5            .       .       .       .
6  |   |   |   |   |   |   | x | x | x | . |
7            .   .       .       .
8  |   |   |   |   |   |   |   |   |   |   |
9
10 |   |   |   |   |   |   |   |   |   |   |
(22) Choose target: e6

Miss...
   | A | B | C | D | E | F | G | H | I | J |
1
2  |   |   |   |   |   |   |   | . |   |   |
3    .       x   x   x   x   .   x
4  |   |   |   |   |   |   |   | x |   |   |
5            .       .       .       .
6  |   |   |   |   | . |   | x | x | x | . |
7            .   .       .       .
8  |   |   |   |   |   |   |   |   |   |   |
9
10 |   |   |   |   |   |   |   |   |   |   |
(23) Choose target: b6

Hit!
   | A | B | C | D | E | F | G | H | I | J |
1
2  |   |   |   |   |   |   |   | . |   |   |
3    .       x   x   x   x   .   x
4  |   |   |   |   |   |   |   | x |   |   |
5            .       .       .       .
6  |   | x |   |   | . |   | x | x | x | . |
7            .   .       .       .
8  |   |   |   |   |   |   |   |   |   |   |
9
10 |   |   |   |   |   |   |   |   |   |   |
(24) Choose target: c6

Miss...
   | A | B | C | D | E | F | G | H | I | J |
1
2  |   |   |   |   |   |   |   | . |   |   |
3    .       x   x   x   x   .   x
4  |   |   |   |   |   |   |   | x |   |   |
5            .       .       .       .
6  |   | x | . |   | . |   | x | x | x | . |
7            .   .       .       .
8  |   |   |   |   |   |   |   |   |   |   |
9
10 |   |   |   |   |   |   |   |   |   |   |
(25) Choose target: a6

Miss...
   | A | B | C | D | E | F | G | H | I | J |
1
2  |   |   |   |   |   |   |   | . |   |   |
3    .       x   x   x   x   .   x
4  |   |   |   |   |   |   |   | x |   |   |
5            .       .       .       .
6  | . | x | . |   | . |   | x | x | x | . |
7            .   .       .       .
8  |   |   |   |   |   |   |   |   |   |   |
9
10 |   |   |   |   |   |   |   |   |   |   |
(26) Choose target: b5

Miss...
   | A | B | C | D | E | F | G | H | I | J |
1
2  |   |   |   |   |   |   |   | . |   |   |
3    .       x   x   x   x   .   x
4  |   |   |   |   |   |   |   | x |   |   |
5        .   .       .       .       .
6  | . | x | . |   | . |   | x | x | x | . |
7            .   .       .       .
8  |   |   |   |   |   |   |   |   |   |   |
9
10 |   |   |   |   |   |   |   |   |   |   |
(27) Choose target: b7

Hit and killed!
   | A | B | C | D | E | F | G | H | I | J |
1
2  |   |   |   |   |   |   |   | . |   |   |
3    .       x   x   x   x   .   x
4  |   |   |   |   |   |   |   | x |   |   |
5        .   .       .       .       .
6  | . | x | . |   | . |   | x | x | x | . |
7        x   .   .       .       .
8  |   |   |   |   |   |   |   |   |   |   |
9
10 |   |   |   |   |   |   |   |   |   |   |
(28) Choose target: b9

Hit!
   | A | B | C | D | E | F | G | H | I | J |
1
2  |   |   |   |   |   |   |   | . |   |   |
3    .       x   x   x   x   .   x
4  |   |   |   |   |   |   |   | x |   |   |
5        .   .       .       .       .
6  | . | x | . |   | . |   | x | x | x | . |
7        x   .   .       .       .
8  |   |   |   |   |   |   |   |   |   |   |
9        x
10 |   |   |   |   |   |   |   |   |   |   |
(29) Choose target: b10

Miss...
   | A | B | C | D | E | F | G | H | I | J |
1
2  |   |   |   |   |   |   |   | . |   |   |
3    .       x   x   x   x   .   x
4  |   |   |   |   |   |   |   | x |   |   |
5        .   .       .       .       .
6  | . | x | . |   | . |   | x | x | x | . |
7        x   .   .       .       .
8  |   |   |   |   |   |   |   |   |   |   |
9        x
10 |   | . |   |   |   |   |   |   |   |   |
(30) Choose target: a9

Miss...
   | A | B | C | D | E | F | G | H | I | J |
1
2  |   |   |   |   |   |   |   | . |   |   |
3    .       x   x   x   x   .   x
4  |   |   |   |   |   |   |   | x |   |   |
5        .   .       .       .       .
6  | . | x | . |   | . |   | x | x | x | . |
7        x   .   .       .       .
8  |   |   |   |   |   |   |   |   |   |   |
9    .   x
10 |   | . |   |   |   |   |   |   |   |   |
(31) Choose target: c9

Hit and killed!
   | A | B | C | D | E | F | G | H | I | J |
1
2  |   |   |   |   |   |   |   | . |   |   |
3    .       x   x   x   x   .   x
4  |   |   |   |   |   |   |   | x |   |   |
5        .   .       .       .       .
6  | . | x | . |   | . |   | x | x | x | . |
7        x   .   .       .       .
8  |   |   |   |   |   |   |   |   |   |   |
9    .   x   x
10 |   | . |   |   |   |   |   |   |   |   |
(32) Choose target: e9

Miss...
   | A | B | C | D | E | F | G | H | I | J |
1
2  |   |   |   |   |   |   |   | . |   |   |
3    .       x   x   x   x   .   x
4  |   |   |   |   |   |   |   | x |   |   |
5        .   .       .       .       .
6  | . | x | . |   | . |   | x | x | x | . |
7        x   .   .       .       .
8  |   |   |   |   |   |   |   |   |   |   |
9    .   x   x       .
10 |   | . |   |   |   |   |   |   |   |   |
(33) Choose target: g9

Miss...
   | A | B | C | D | E | F | G | H | I | J |
1
2  |   |   |   |   |   |   |   | . |   |   |
3    .       x   x   x   x   .   x
4  |   |   |   |   |   |   |   | x |   |   |
5        .   .       .       .       .
6  | . | x | . |   | . |   | x | x | x | . |
7        x   .   .       .       .
8  |   |   |   |   |   |   |   |   |   |   |
9    .   x   x       .       .
10 |   | . |   |   |   |   |   |   |   |   |
(34) Choose target: i9

Miss...
   | A | B | C | D | E | F | G | H | I | J |
1
2  |   |   |   |   |   |   |   | . |   |   |
3    .       x   x   x   x   .   x
4  |   |   |   |   |   |   |   | x |   |   |
5        .   .       .       .       .
6  | . | x | . |   | . |   | x | x | x | . |
7        x   .   .       .       .
8  |   |   |   |   |   |   |   |   |   |   |
9    .   x   x       .       .       .
10 |   | . |   |   |   |   |   |   |   |   |
(35) Choose target: j7

Hit and killed!
   | A | B | C | D | E | F | G | H | I | J |
1
2  |   |   |   |   |   |   |   | . |   |   |
3    .       x   x   x   x   .   x
4  |   |   |   |   |   |   |   | x |   |   |
5        .   .       .       .       .
6  | . | x | . |   | . |   | x | x | x | . |
7        x   .   .       .       .       x
8  |   |   |   |   |   |   |   |   |   |   |
9    .   x   x       .       .       .
10 |   | . |   |   |   |   |   |   |   |   |
(36) Choose target: j9

Miss...
   | A | B | C | D | E | F | G | H | I | J |
1
2  |   |   |   |   |   |   |   | . |   |   |
3    .       x   x   x   x   .   x
4  |   |   |   |   |   |   |   | x |   |   |
5        .   .       .       .       .
6  | . | x | . |   | . |   | x | x | x | . |
7        x   .   .       .       .       x
8  |   |   |   |   |   |   |   |   |   |   |
9    .   x   x       .       .       .   .
10 |   | . |   |   |   |   |   |   |   |   |
(37) Choose target: d1

Hit!
   | A | B | C | D | E | F | G | H | I | J |
1                x
2  |   |   |   |   |   |   |   | . |   |   |
3    .       x   x   x   x   .   x
4  |   |   |   |   |   |   |   | x |   |   |
5        .   .       .       .       .
6  | . | x | . |   | . |   | x | x | x | . |
7        x   .   .       .       .       x
8  |   |   |   |   |   |   |   |   |   |   |
9    .   x   x       .       .       .   .
10 |   | . |   |   |   |   |   |   |   |   |
(38) Choose target: c1

Hit!
   | A | B | C | D | E | F | G | H | I | J |
1            x   x
2  |   |   |   |   |   |   |   | . |   |   |
3    .       x   x   x   x   .   x
4  |   |   |   |   |   |   |   | x |   |   |
5        .   .       .       .       .
6  | . | x | . |   | . |   | x | x | x | . |
7        x   .   .       .       .       x
8  |   |   |   |   |   |   |   |   |   |   |
9    .   x   x       .       .       .   .
10 |   | . |   |   |   |   |   |   |   |   |
(39) Choose target: b1

Miss...
   | A | B | C | D | E | F | G | H | I | J |
1        .   x   x
2  |   |   |   |   |   |   |   | . |   |   |
3    .       x   x   x   x   .   x
4  |   |   |   |   |   |   |   | x |   |   |
5        .   .       .       .       .
6  | . | x | . |   | . |   | x | x | x | . |
7        x   .   .       .       .       x
8  |   |   |   |   |   |   |   |   |   |   |
9    .   x   x       .       .       .   .
10 |   | . |   |   |   |   |   |   |   |   |
(40) Choose target: e1

Hit and killed!
   | A | B | C | D | E | F | G | H | I | J |
1        .   x   x   x
2  |   |   |   |   |   |   |   | . |   |   |
3    .       x   x   x   x   .   x
4  |   |   |   |   |   |   |   | x |   |   |
5        .   .       .       .       .
6  | . | x | . |   | . |   | x | x | x | . |
7        x   .   .       .       .       x
8  |   |   |   |   |   |   |   |   |   |   |
9    .   x   x       .       .       .   .
10 |   | . |   |   |   |   |   |   |   |   |
(41) Choose target: g1

Miss...
   | A | B | C | D | E | F | G | H | I | J |
1        .   x   x   x       .
2  |   |   |   |   |   |   |   | . |   |   |
3    .       x   x   x   x   .   x
4  |   |   |   |   |   |   |   | x |   |   |
5        .   .       .       .       .
6  | . | x | . |   | . |   | x | x | x | . |
7        x   .   .       .       .       x
8  |   |   |   |   |   |   |   |   |   |   |
9    .   x   x       .       .       .   .
10 |   | . |   |   |   |   |   |   |   |   |
(42) Choose target: i1

Miss...
   | A | B | C | D | E | F | G | H | I | J |
1        .   x   x   x       .       .
2  |   |   |   |   |   |   |   | . |   |   |
3    .       x   x   x   x   .   x
4  |   |   |   |   |   |   |   | x |   |   |
5        .   .       .       .       .
6  | . | x | . |   | . |   | x | x | x | . |
7        x   .   .       .       .       x
8  |   |   |   |   |   |   |   |   |   |   |
9    .   x   x       .       .       .   .
10 |   | . |   |   |   |   |   |   |   |   |
(43) Choose target: b3

Miss...
   | A | B | C | D | E | F | G | H | I | J |
1        .   x   x   x       .       .
2  |   |   |   |   |   |   |   | . |   |   |
3    .   .   x   x   x   x   .   x
4  |   |   |   |   |   |   |   | x |   |   |
5        .   .       .       .       .
6  | . | x | . |   | . |   | x | x | x | . |
7        x   .   .       .       .       x
8  |   |   |   |   |   |   |   |   |   |   |
9    .   x   x       .       .       .   .
10 |   | . |   |   |   |   |   |   |   |   |
(44) Choose target: d5

Miss...
   | A | B | C | D | E | F | G | H | I | J |
1        .   x   x   x       .       .
2  |   |   |   |   |   |   |   | . |   |   |
3    .   .   x   x   x   x   .   x
4  |   |   |   |   |   |   |   | x |   |   |
5        .   .   .   .       .       .
6  | . | x | . |   | . |   | x | x | x | . |
7        x   .   .       .       .       x
8  |   |   |   |   |   |   |   |   |   |   |
9    .   x   x       .       .       .   .
10 |   | . |   |   |   |   |   |   |   |   |
(45) Choose target: g8

Miss...
   | A | B | C | D | E | F | G | H | I | J |
1        .   x   x   x       .       .
2  |   |   |   |   |   |   |   | . |   |   |
3    .   .   x   x   x   x   .   x
4  |   |   |   |   |   |   |   | x |   |   |
5        .   .   .   .       .       .
6  | . | x | . |   | . |   | x | x | x | . |
7        x   .   .       .       .       x
8  |   |   |   |   |   |   | . |   |   |   |
9    .   x   x       .       .       .   .
10 |   | . |   |   |   |   |   |   |   |   |
(46) Choose target: a4

Hit and killed!
   | A | B | C | D | E | F | G | H | I | J |
1        .   x   x   x       .       .
2  |   |   |   |   |   |   |   | . |   |   |
3    .   .   x   x   x   x   .   x
4  | x |   |   |   |   |   |   | x |   |   |
5        .   .   .   .       .       .
6  | . | x | . |   | . |   | x | x | x | . |
7        x   .   .       .       .       x
8  |   |   |   |   |   |   | . |   |   |   |
9    .   x   x       .       .       .   .
10 |   | . |   |   |   |   |   |   |   |   |
(47) Choose target: j3

Miss...
   | A | B | C | D | E | F | G | H | I | J |
1        .   x   x   x       .       .
2  |   |   |   |   |   |   |   | . |   |   |
3    .   .   x   x   x   x   .   x       .
4  | x |   |   |   |   |   |   | x |   |   |
5        .   .   .   .       .       .
6  | . | x | . |   | . |   | x | x | x | . |
7        x   .   .       .       .       x
8  |   |   |   |   |   |   | . |   |   |   |
9    .   x   x       .       .       .   .
10 |   | . |   |   |   |   |   |   |   |   |
(48) Choose target: a1

Miss...
   | A | B | C | D | E | F | G | H | I | J |
1    .   .   x   x   x       .       .
2  |   |   |   |   |   |   |   | . |   |   |
3    .   .   x   x   x   x   .   x       .
4  | x |   |   |   |   |   |   | x |   |   |
5        .   .   .   .       .       .
6  | . | x | . |   | . |   | x | x | x | . |
7        x   .   .       .       .       x
8  |   |   |   |   |   |   | . |   |   |   |
9    .   x   x       .       .       .   .
10 |   | . |   |   |   |   |   |   |   |   |
(49) Choose target: b2

Miss...
   | A | B | C | D | E | F | G | H | I | J |
1    .   .   x   x   x       .       .
2  |   | . |   |   |   |   |   | . |   |   |
3    .   .   x   x   x   x   .   x       .
4  | x |   |   |   |   |   |   | x |   |   |
5        .   .   .   .       .       .
6  | . | x | . |   | . |   | x | x | x | . |
7        x   .   .       .       .       x
8  |   |   |   |   |   |   | . |   |   |   |
9    .   x   x       .       .       .   .
10 |   | . |   |   |   |   |   |   |   |   |
(50) Choose target: d8

Miss...
   | A | B | C | D | E | F | G | H | I | J |
1    .   .   x   x   x       .       .
2  |   | . |   |   |   |   |   | . |   |   |
3    .   .   x   x   x   x   .   x       .
4  | x |   |   |   |   |   |   | x |   |   |
5        .   .   .   .       .       .
6  | . | x | . |   | . |   | x | x | x | . |
7        x   .   .       .       .       x
8  |   |   |   | . |   |   | . |   |   |   |
9    .   x   x       .       .       .   .
10 |   | . |   |   |   |   |   |   |   |   |
(51) Choose target: f9

Miss...
   | A | B | C | D | E | F | G | H | I | J |
1    .   .   x   x   x       .       .
2  |   | . |   |   |   |   |   | . |   |   |
3    .   .   x   x   x   x   .   x       .
4  | x |   |   |   |   |   |   | x |   |   |
5        .   .   .   .       .       .
6  | . | x | . |   | . |   | x | x | x | . |
7        x   .   .       .       .       x
8  |   |   |   | . |   |   | . |   |   |   |
9    .   x   x       .   .   .       .   .
10 |   | . |   |   |   |   |   |   |   |   |
(52) Choose target: f10

Miss...
   | A | B | C | D | E | F | G | H | I | J |
1    .   .   x   x   x       .       .
2  |   | . |   |   |   |   |   | . |   |   |
3    .   .   x   x   x   x   .   x       .
4  | x |   |   |   |   |   |   | x |   |   |
5        .   .   .   .       .       .
6  | . | x | . |   | . |   | x | x | x | . |
7        x   .   .       .       .       x
8  |   |   |   | . |   |   | . |   |   |   |
9    .   x   x       .   .   .       .   .
10 |   | . |   |   |   | . |   |   |   |   |
(53) Choose target: h9

Miss...
   | A | B | C | D | E | F | G | H | I | J |
1    .   .   x   x   x       .       .
2  |   | . |   |   |   |   |   | . |   |   |
3    .   .   x   x   x   x   .   x       .
4  | x |   |   |   |   |   |   | x |   |   |
5        .   .   .   .       .       .
6  | . | x | . |   | . |   | x | x | x | . |
7        x   .   .       .       .       x
8  |   |   |   | . |   |   | . |   |   |   |
9    .   x   x       .   .   .   .   .   .
10 |   | . |   |   |   | . |   |   |   |   |
(54) Choose target: i10

Miss...
   | A | B | C | D | E | F | G | H | I | J |
1    .   .   x   x   x       .       .
2  |   | . |   |   |   |   |   | . |   |   |
3    .   .   x   x   x   x   .   x       .
4  | x |   |   |   |   |   |   | x |   |   |
5        .   .   .   .       .       .
6  | . | x | . |   | . |   | x | x | x | . |
7        x   .   .       .       .       x
8  |   |   |   | . |   |   | . |   |   |   |
9    .   x   x       .   .   .   .   .   .
10 |   | . |   |   |   | . |   |   | . |   |
(55) Choose target: h8

Miss...
   | A | B | C | D | E | F | G | H | I | J |
1    .   .   x   x   x       .       .
2  |   | . |   |   |   |   |   | . |   |   |
3    .   .   x   x   x   x   .   x       .
4  | x |   |   |   |   |   |   | x |   |   |
5        .   .   .   .       .       .
6  | . | x | . |   | . |   | x | x | x | . |
7        x   .   .       .       .       x
8  |   |   |   | . |   |   | . | . |   |   |
9    .   x   x       .   .   .   .   .   .
10 |   | . |   |   |   | . |   |   | . |   |
(56) Choose target: d10

Miss...
   | A | B | C | D | E | F | G | H | I | J |
1    .   .   x   x   x       .       .
2  |   | . |   |   |   |   |   | . |   |   |
3    .   .   x   x   x   x   .   x       .
4  | x |   |   |   |   |   |   | x |   |   |
5        .   .   .   .       .       .
6  | . | x | . |   | . |   | x | x | x | . |
7        x   .   .       .       .       x
8  |   |   |   | . |   |   | . | . |   |   |
9    .   x   x       .   .   .   .   .   .
10 |   | . |   | . |   | . |   |   | . |   |
(57) Choose target: g10

Miss...
   | A | B | C | D | E | F | G | H | I | J |
1    .   .   x   x   x       .       .
2  |   | . |   |   |   |   |   | . |   |   |
3    .   .   x   x   x   x   .   x       .
4  | x |   |   |   |   |   |   | x |   |   |
5        .   .   .   .       .       .
6  | . | x | . |   | . |   | x | x | x | . |
7        x   .   .       .       .       x
8  |   |   |   | . |   |   | . | . |   |   |
9    .   x   x       .   .   .   .   .   .
10 |   | . |   | . |   | . | . |   | . |   |
(58) Choose target: f8

Miss...
   | A | B | C | D | E | F | G | H | I | J |
1    .   .   x   x   x       .       .
2  |   | . |   |   |   |   |   | . |   |   |
3    .   .   x   x   x   x   .   x       .
4  | x |   |   |   |   |   |   | x |   |   |
5        .   .   .   .       .       .
6  | . | x | . |   | . |   | x | x | x | . |
7        x   .   .       .       .       x
8  |   |   |   | . |   | . | . | . |   |   |
9    .   x   x       .   .   .   .   .   .
10 |   | . |   | . |   | . | . |   | . |   |
(59) Choose target: i2

Miss...
   | A | B | C | D | E | F | G | H | I | J |
1    .   .   x   x   x       .       .
2  |   | . |   |   |   |   |   | . | . |   |
3    .   .   x   x   x   x   .   x       .
4  | x |   |   |   |   |   |   | x |   |   |
5        .   .   .   .       .       .
6  | . | x | . |   | . |   | x | x | x | . |
7        x   .   .       .       .       x
8  |   |   |   | . |   | . | . | . |   |   |
9    .   x   x       .   .   .   .   .   .
10 |   | . |   | . |   | . | . |   | . |   |
(60) Choose target: f5

Miss...
   | A | B | C | D | E | F | G | H | I | J |
1    .   .   x   x   x       .       .
2  |   | . |   |   |   |   |   | . | . |   |
3    .   .   x   x   x   x   .   x       .
4  | x |   |   |   |   |   |   | x |   |   |
5        .   .   .   .   .   .       .
6  | . | x | . |   | . |   | x | x | x | . |
7        x   .   .       .       .       x
8  |   |   |   | . |   | . | . | . |   |   |
9    .   x   x       .   .   .   .   .   .
10 |   | . |   | . |   | . | . |   | . |   |
(61) Choose target: a8

Miss...
   | A | B | C | D | E | F | G | H | I | J |
1    .   .   x   x   x       .       .
2  |   | . |   |   |   |   |   | . | . |   |
3    .   .   x   x   x   x   .   x       .
4  | x |   |   |   |   |   |   | x |   |   |
5        .   .   .   .   .   .       .
6  | . | x | . |   | . |   | x | x | x | . |
7        x   .   .       .       .       x
8  | . |   |   | . |   | . | . | . |   |   |
9    .   x   x       .   .   .   .   .   .
10 |   | . |   | . |   | . | . |   | . |   |
(62) Choose target: a7

Miss...
   | A | B | C | D | E | F | G | H | I | J |
1    .   .   x   x   x       .       .
2  |   | . |   |   |   |   |   | . | . |   |
3    .   .   x   x   x   x   .   x       .
4  | x |   |   |   |   |   |   | x |   |   |
5        .   .   .   .   .   .       .
6  | . | x | . |   | . |   | x | x | x | . |
7    .   x   .   .       .       .       x
8  | . |   |   | . |   | . | . | . |   |   |
9    .   x   x       .   .   .   .   .   .
10 |   | . |   | . |   | . | . |   | . |   |
(63) Choose target: j5

Miss...
   | A | B | C | D | E | F | G | H | I | J |
1    .   .   x   x   x       .       .
2  |   | . |   |   |   |   |   | . | . |   |
3    .   .   x   x   x   x   .   x       .
4  | x |   |   |   |   |   |   | x |   |   |
5        .   .   .   .   .   .       .   .
6  | . | x | . |   | . |   | x | x | x | . |
7    .   x   .   .       .       .       x
8  | . |   |   | . |   | . | . | . |   |   |
9    .   x   x       .   .   .   .   .   .
10 |   | . |   | . |   | . | . |   | . |   |
(64) Choose target: j1

Miss...
   | A | B | C | D | E | F | G | H | I | J |
1    .   .   x   x   x       .       .   .
2  |   | . |   |   |   |   |   | . | . |   |
3    .   .   x   x   x   x   .   x       .
4  | x |   |   |   |   |   |   | x |   |   |
5        .   .   .   .   .   .       .   .
6  | . | x | . |   | . |   | x | x | x | . |
7    .   x   .   .       .       .       x
8  | . |   |   | . |   | . | . | . |   |   |
9    .   x   x       .   .   .   .   .   .
10 |   | . |   | . |   | . | . |   | . |   |
(65) Choose target: j2

Miss...
   | A | B | C | D | E | F | G | H | I | J |
1    .   .   x   x   x       .       .   .
2  |   | . |   |   |   |   |   | . | . | . |
3    .   .   x   x   x   x   .   x       .
4  | x |   |   |   |   |   |   | x |   |   |
5        .   .   .   .   .   .       .   .
6  | . | x | . |   | . |   | x | x | x | . |
7    .   x   .   .       .       .       x
8  | . |   |   | . |   | . | . | . |   |   |
9    .   x   x       .   .   .   .   .   .
10 |   | . |   | . |   | . | . |   | . |   |
(66) Choose target: j4

Miss...
   | A | B | C | D | E | F | G | H | I | J |
1    .   .   x   x   x       .       .   .
2  |   | . |   |   |   |   |   | . | . | . |
3    .   .   x   x   x   x   .   x       .
4  | x |   |   |   |   |   |   | x |   | . |
5        .   .   .   .   .   .       .   .
6  | . | x | . |   | . |   | x | x | x | . |
7    .   x   .   .       .       .       x
8  | . |   |   | . |   | . | . | . |   |   |
9    .   x   x       .   .   .   .   .   .
10 |   | . |   | . |   | . | . |   | . |   |
(67) Choose target: a2

Miss...
   | A | B | C | D | E | F | G | H | I | J |
1    .   .   x   x   x       .       .   .
2  | . | . |   |   |   |   |   | . | . | . |
3    .   .   x   x   x   x   .   x       .
4  | x |   |   |   |   |   |   | x |   | . |
5        .   .   .   .   .   .       .   .
6  | . | x | . |   | . |   | x | x | x | . |
7    .   x   .   .       .       .       x
8  | . |   |   | . |   | . | . | . |   |   |
9    .   x   x       .   .   .   .   .   .
10 |   | . |   | . |   | . | . |   | . |   |
(68) Choose target: g2

Miss...
   | A | B | C | D | E | F | G | H | I | J |
1    .   .   x   x   x       .       .   .
2  | . | . |   |   |   |   | . | . | . | . |
3    .   .   x   x   x   x   .   x       .
4  | x |   |   |   |   |   |   | x |   | . |
5        .   .   .   .   .   .       .   .
6  | . | x | . |   | . |   | x | x | x | . |
7    .   x   .   .       .       .       x
8  | . |   |   | . |   | . | . | . |   |   |
9    .   x   x       .   .   .   .   .   .
10 |   | . |   | . |   | . | . |   | . |   |
(69) Choose target: h1

Miss...
   | A | B | C | D | E | F | G | H | I | J |
1    .   .   x   x   x       .   .   .   .
2  | . | . |   |   |   |   | . | . | . | . |
3    .   .   x   x   x   x   .   x       .
4  | x |   |   |   |   |   |   | x |   | . |
5        .   .   .   .   .   .       .   .
6  | . | x | . |   | . |   | x | x | x | . |
7    .   x   .   .       .       .       x
8  | . |   |   | . |   | . | . | . |   |   |
9    .   x   x       .   .   .   .   .   .
10 |   | . |   | . |   | . | . |   | . |   |
(70) Choose target: i8

Miss...
   | A | B | C | D | E | F | G | H | I | J |
1    .   .   x   x   x       .   .   .   .
2  | . | . |   |   |   |   | . | . | . | . |
3    .   .   x   x   x   x   .   x       .
4  | x |   |   |   |   |   |   | x |   | . |
5        .   .   .   .   .   .       .   .
6  | . | x | . |   | . |   | x | x | x | . |
7    .   x   .   .       .       .       x
8  | . |   |   | . |   | . | . | . | . |   |
9    .   x   x       .   .   .   .   .   .
10 |   | . |   | . |   | . | . |   | . |   |
(71) Choose target: e7

Miss...
   | A | B | C | D | E | F | G | H | I | J |
1    .   .   x   x   x       .   .   .   .
2  | . | . |   |   |   |   | . | . | . | . |
3    .   .   x   x   x   x   .   x       .
4  | x |   |   |   |   |   |   | x |   | . |
5        .   .   .   .   .   .       .   .
6  | . | x | . |   | . |   | x | x | x | . |
7    .   x   .   .   .   .       .       x
8  | . |   |   | . |   | . | . | . | . |   |
9    .   x   x       .   .   .   .   .   .
10 |   | . |   | . |   | . | . |   | . |   |
(72) Choose target: a5

Miss...
   | A | B | C | D | E | F | G | H | I | J |
1    .   .   x   x   x       .   .   .   .
2  | . | . |   |   |   |   | . | . | . | . |
3    .   .   x   x   x   x   .   x       .
4  | x |   |   |   |   |   |   | x |   | . |
5    .   .   .   .   .   .   .       .   .
6  | . | x | . |   | . |   | x | x | x | . |
7    .   x   .   .   .   .       .       x
8  | . |   |   | . |   | . | . | . | . |   |
9    .   x   x       .   .   .   .   .   .
10 |   | . |   | . |   | . | . |   | . |   |
(73) Choose target: a10

Miss...
   | A | B | C | D | E | F | G | H | I | J |
1    .   .   x   x   x       .   .   .   .
2  | . | . |   |   |   |   | . | . | . | . |
3    .   .   x   x   x   x   .   x       .
4  | x |   |   |   |   |   |   | x |   | . |
5    .   .   .   .   .   .   .       .   .
6  | . | x | . |   | . |   | x | x | x | . |
7    .   x   .   .   .   .       .       x
8  | . |   |   | . |   | . | . | . | . |   |
9    .   x   x       .   .   .   .   .   .
10 | . | . |   | . |   | . | . |   | . |   |
(74) Choose target: e8

Miss...
   | A | B | C | D | E | F | G | H | I | J |
1    .   .   x   x   x       .   .   .   .
2  | . | . |   |   |   |   | . | . | . | . |
3    .   .   x   x   x   x   .   x       .
4  | x |   |   |   |   |   |   | x |   | . |
5    .   .   .   .   .   .   .       .   .
6  | . | x | . |   | . |   | x | x | x | . |
7    .   x   .   .   .   .       .       x
8  | . |   |   | . | . | . | . | . | . |   |
9    .   x   x       .   .   .   .   .   .
10 | . | . |   | . |   | . | . |   | . |   |
(75) Choose target: e10

Miss...
   | A | B | C | D | E | F | G | H | I | J |
1    .   .   x   x   x       .   .   .   .
2  | . | . |   |   |   |   | . | . | . | . |
3    .   .   x   x   x   x   .   x       .
4  | x |   |   |   |   |   |   | x |   | . |
5    .   .   .   .   .   .   .       .   .
6  | . | x | . |   | . |   | x | x | x | . |
7    .   x   .   .   .   .       .       x
8  | . |   |   | . | . | . | . | . | . |   |
9    .   x   x       .   .   .   .   .   .
10 | . | . |   | . | . | . | . |   | . |   |
(76) Choose target: h10

Hit and killed!
   | A | B | C | D | E | F | G | H | I | J |
1    .   .   x   x   x       .   .   .   .
2  | . | . |   |   |   |   | . | . | . | . |
3    .   .   x   x   x   x   .   x       .
4  | x |   |   |   |   |   |   | x |   | . |
5    .   .   .   .   .   .   .       .   .
6  | . | x | . |   | . |   | x | x | x | . |
7    .   x   .   .   .   .       .       x
8  | . |   |   | . | . | . | . | . | . |   |
9    .   x   x       .   .   .   .   .   .
10 | . | . |   | . | . | . | . | x | . |   |
(77) Choose target: j10

Miss...
   | A | B | C | D | E | F | G | H | I | J |
1    .   .   x   x   x       .   .   .   .
2  | . | . |   |   |   |   | . | . | . | . |
3    .   .   x   x   x   x   .   x       .
4  | x |   |   |   |   |   |   | x |   | . |
5    .   .   .   .   .   .   .       .   .
6  | . | x | . |   | . |   | x | x | x | . |
7    .   x   .   .   .   .       .       x
8  | . |   |   | . | . | . | . | . | . |   |
9    .   x   x       .   .   .   .   .   .
10 | . | . |   | . | . | . | . | x | . | . |
(78) Choose target: d6

Hit, killed and exterminated in 79!
   | A | B | C | D | E | F | G | H | I | J |
1    .   .   x   x   x       .   .   .   .
2  | . | . |   |   |   |   | . | . | . | . |
3    .   .   x   x   x   x   .   x       .
4  | x |   |   |   |   |   |   | x |   | . |
5    .   .   .   .   .   .   .       .   .
6  | . | x | . | x | . |   | x | x | x | . |
7    .   x   .   .   .   .       .       x
8  | . |   |   | . | . | . | . | . | . |   |
9    .   x   x       .   .   .   .   .   .
10 | . | . |   | . | . | . | . | x | . | . |
